hoardcurse = {
	potential = {
		culture_group = dwarven
		NOT = { has_country_flag = hoardcurse_happened }
		AND = {
			capital_scope = { continent = serpentspine }
			total_development = 600
		}
		ai = no
	}

	
	
	can_start = {
		OR = {
			treasury = 10000
			monthly_income = 150
		}
		NOT = { has_country_modifier = shadow_of_the_hoardcurse }
		has_any_disaster = no
	}
	
	
	can_stop = {
        NOT = { ruler_has_personality = greedy_personality }
		NOT = { treasury = 200 }
	}
	
	progress = {
		modifier = {
			factor = 5
			ruler_has_personality = greedy_personality
		}
		modifier = {
			factor = 5
			gold_income_percentage = 0.1
		}
		modifier = {
			factor = 1
			monthly_income = 150
		}
		modifier = {
			factor = 2
			monthly_income = 200
		}
		modifier = {
			factor = 3
			monthly_income = 300
		}
		modifier = {
			factor = 4
			monthly_income = 400
		}
		modifier = {
			factor = 1
			treasury = 1000
		}
		modifier = {
			factor = 2
			treasury = 2500
		}
		modifier = {
			factor = 3
			treasury = 5000
		}
		modifier = {
			factor = 4
			treasury = 10000
		}
		modifier = {
			factor = 8
			treasury = 50000
		}
		modifier = {
			factor = 12
			treasury = 75000
		}
		modifier = {
			factor = 30
			treasury = 100000
		}
		
	}
	
	
	
	can_end = {
		custom_trigger_tooltip = {
			tooltip = all_the_reforms_tooltip
			
			has_country_modifier = crackdown_hoard_reform
			has_country_modifier = hoard_bank_reform
			has_country_modifier = hoard_monopolies_reform
			has_country_modifier = hoard_contract_reform
			has_country_modifier = curtail_reform
			
		}
		NOT = { ruler_has_personality = greedy_personality }
	}
	

	modifier = {
		yearly_corruption = 2.5
		advisor_cost = 0.75
		global_tax_modifier = -0.75
		
		interest = 8
		inflation_action_cost = 0.5
		inflation_reduction = -0.3
		
		trade_efficiency = -0.75
		
		global_unrest = 8
		stability_cost_modifier = 0.5
		harsh_treatment_cost = 0.5
		
		min_autonomy = 30
	}
	
	
	on_start = hoardcurse.5
	on_end = hoardcurse.25
	
	on_monthly = {
		events = {
		}
		random_events = { 
			1000 = 0
		
		}
	}
}

