# Hopefully this is loaded before anb_country_ideas!


client_ideas = {
	start = {
		land_morale = 0.1
		core_creation = -0.10
	}
	
	bonus = {
		build_cost = -0.1
	}
	
	trigger = {
		is_client_nation = yes
	}
	free = yes
		
	client_self_rule = {
		global_unrest = -2
	}
	foreign_tax_collectors = {	
		global_tax_modifier = 0.10
	}
	fortified_borders = {
		defensiveness = 0.15
	}
	magnate_landowners = {
		production_efficiency = 0.1
	}	
	mercantile_privileges = {
		global_prov_trade_power_modifier = 0.15
	}
	mercenary_recruitment_center = {
		merc_maintenance_modifier = -0.15
	}	
	foreign_advisors_client = {
		advisor_pool = 1
	}
}


colonial_ideas = {
	start = {
		development_cost = -0.1
		no_religion_penalty = yes
	}
	
	bonus = {
		land_morale = 0.10
	}
	
	trigger = {
		is_colonial_nation = yes
	}
	free = yes
	
	founding_fathers = {
		republican_tradition = 0.5
	}
	continental_trade = {
		global_prov_trade_power_modifier = 0.25
	}
	manufacturing_center = {
		build_cost = -0.1
	}
	free_thinkers = {
		idea_cost = -0.1
	}
	colonial_militia = {
		global_regiment_cost = -0.1
	}
	new_frontiers = {
		auto_explore_adjacent_to_colony = yes
		global_colonial_growth = 20
	}
	liberty_heroes = {
		free_leader_pool = 1
	}
}


pirate_ideas = {
	start = {
		navy_tradition = 1
		free_leader_pool = 1
	}
	bonus = {
		unjustified_demands = -0.25
	}
	trigger = {
		has_reform = pirate_republic_reform
		# NOT = { culture_group = maghrebi }
		# NOT = { tag = TET }
		# NOT = { tag = SLE }
	}
	free = yes
	
	pirates_religious_apathy = {
		no_religion_penalty = yes
	}	
	pirates_plunder = {
		loot_amount = 0.25
	}
	pirates_bucanneers_ideas = {	
		infantry_cost = -0.1
	}
	pirates_sail_in_consort = {
		global_naval_engagement_modifier = 0.2
	}
	pirates_elected_quartermasters = {
		global_unrest = -2
		naval_morale = 0.1
	}
	pirate_bays = {
		own_coast_naval_combat_bonus = 1
	}
	pirate_life_of_liberty = {
		rebel_support_efficiency = 0.25
		sailors_recovery_speed = 0.1
	}
}


##Dwarovar remnant ideas
remnant_ideas = {
	start = {
		development_cost = -0.15
		infantry_power = 0.1
	}
	
	bonus = {
		global_own_trade_power = 0.15
	}
	
	trigger = {
		culture_group = dwarven
		has_reform = dwarven_clan_reform
		capital_scope = {
			continent = serpentspine
		}
	}
	free = yes        #will be added at load.
	
	remnant_solid_as_stone = {
		discipline = 0.05
	}
	remnant_dwarven_craftsmanship = {
		global_trade_goods_size_modifier = 0.1
	}
	remnant_reclaim_our_homeland = {
		colonists = 1
		global_colonial_growth = 30
	}
	remnant_masters_of_defense = {
		defensiveness = 0.25
	}
	remnant_blackpowder_engineering = {
		mil_tech_cost_modifier = -0.1
	}
	remnant_dwarven_resilience = {
		shock_damage_received = -0.05
		fire_damage_received = -0.05
	}
	remnant_master_builders = {
		siege_ability = 0.10
		build_time = -0.1
	}
}

##Dwarovar Squatter
squatter_ideas = {
	start = {
		land_morale = 0.1
		manpower_recovery_speed = 0.15
	}
	
	bonus = {
		global_manpower_modifier = 0.33
	}
	
	trigger = {
		has_reform = dwarovar_squatter
	}
	free = yes
	
	squatter_life_under_the_sun = {
		land_attrition = -0.2
		leader_land_manuever = 1
	}
	squatter_infrastructure = {
		build_cost = -0.15 
	}
	squatter_taking_what_is_ours = {
		colonists = 1
		may_establish_frontier = yes
	}
	squatter_maintain_the_tradition = {
		army_tradition = 1 
	}
	squatter_the_dwarovar_toll = {
		vassal_income = 0.2
		vassal_forcelimit_bonus = 0.2
	}
	squatter_expert_squatter = {
		state_maintenance_modifier = -0.25
		garrison_size = 0.1
	}
	squatter_underground_king = {
		max_states = 5
		max_absolutism = 10
	}
}

##Dwarovar Warband
warband_ideas = { #Orc
	start = {
		movement_speed = 0.1
		infantry_power = 0.1
	}
	
	bonus = {
		land_morale = 0.1
	}
	
	trigger = {
		has_reform = dwarovar_warband
	}
	free = yes
	
	warband_savagery = {
		shock_damage = 0.15
	}
	warband_zeal = {
		church_power_modifier = 0.2
		siege_ability = 0.1
	}
	warband_settlement = {
		may_establish_frontier = yes
		colonists = 1
	}
	warband_domination = {
		native_assimilation = 0.25
		native_uprising_chance = -0.75
	}
	warband_dwarovar_mysteries = {
		innovativeness_gain = 0.33
	}
	warband_cavern_agriculture = {
		global_trade_goods_size_modifier = 0.05
	}
	warband_leading_with_strength = {
		legitimacy = 1
	}
}

adventurer_ideas = {
	start = {
		land_maintenance_modifier = -0.10
		land_attrition = -0.1
		may_recruit_female_generals = yes
		may_explore = yes
	}
	
	bonus = {
		manpower_recovery_speed = 0.1
	}
	
	trigger = {
		has_reform = adventurer_reform
	}
	free = yes
	
	adventurer_call_to_adventure = {
		global_manpower_modifier = 0.1
	}
	adventurer_develop_new_settlements = {
		colonists = 1
		development_cost = -0.2
	}
	adventurer_against_the_greentide = {
		culture_conversion_cost = -0.2
		war_exhaustion = -0.02
	}
	adventurer_fighting_spirit = {
		land_morale = 0.1
	}
	adventurer_legacy_of_heroes = {
		leader_land_shock = 1
	}
	adventurer_the_new_frontier = {
		global_colonial_growth = 33
		auto_explore_adjacent_to_colony = yes
	}
	adventurer_people_from_all_walks_of_life = {
		no_religion_penalty = yes
	}
}

gnollish_ideas = {
	start = {
		land_morale = 0.1
		may_perform_slave_raid = yes
	}
	
	bonus = {
		loot_amount = 0.1
	}
	
	trigger = {
		culture_group = gnollish
	}
	free = yes
	
	a_race_of_scavengers_and_raiders = {
		land_attrition = -0.1
	}
	pack_loyalty = {
		horde_unity = 1
		legitimacy = 1
	}
	demonic_rampage = {
		war_exhaustion = -0.02
		movement_speed = 0.1
	}
	kings_of_the_slave_trade = {
		trade_efficiency = 0.05
		production_efficiency = 0.05
	}
	tight_leash = {
		global_unrest = -1
		reduced_liberty_desire = 5
	}
	flesh_eaters = {
		hostile_attrition = 1
		land_maintenance_modifier = -0.10
	}
	legacy_of_the_xhazobine = {
		land_morale = 0.1
		ae_impact = -0.1
	}
}	

kobold_ideas = {
	start = {
		hostile_attrition = 2
		manpower_recovery_speed = 0.15
	}
	
	bonus = {
		global_regiment_recruit_speed = -0.33
	}
	
	trigger = {
		culture_group = kobold
	}
	free = yes
	
	kobold_mining_community = {
		production_efficiency = 0.1
	}
	kobold_war_against_the_tallfolk = {
		war_exhaustion_cost = -0.10
	}
	kobold_entrenched_territories = {
		enemy_core_creation = 0.1
	}
	kobold_trapmasters = {
		defensiveness = 0.05
		hostile_attrition = 0.5
	}
	kobold_makeshift_builders = {
		build_cost = -0.1
	}
	kobold_rapid_breeders = {
		global_manpower_modifier = 0.1
	}
	kobold_shanty_towns = {
		development_cost = -0.1
	}
}	

halfling_ideas = {
	start = {
		global_trade_goods_size_modifier = 0.1
		trade_efficiency = 0.1
	}
	
	bonus = {
		global_prov_trade_power_modifier = 0.1
	}
	
	trigger = {
		culture_group = halfling
	}
	free = yes
	
	halfling_quick_breeders = {
		manpower_recovery_speed = 0.1
	}
	halfling_agricultural_tradition = {
		production_efficiency = 0.1
	}
	halfling_guerrilla_warfare = {
		hostile_attrition = 1
	}
	halfling_human_hired_help = {
		merc_maintenance_modifier = -0.1
	}
	halfling_advice_of_retired_adventurers = {
		same_culture_advisor_cost = -0.1
	}
	halfling_courage_bravery_and_valour = {
		land_morale = 0.1
	}
	halfling_cuisine = {
		prestige = 1
	}
}	

orcish_ideas = {
	start = {
		may_establish_frontier = yes
		leader_land_shock = 1
	}
	
	bonus = {
		manpower_recovery_speed = 0.1
	}
	
	trigger = {
		culture_group = orcish
		NOT = { primary_culture = brown_orc }
	}
	free = yes
	
	orcish_beserker_frenzy = {
		land_morale = 0.1
	}
	orcish_control_the_clans = {
		horde_unity = 1
		legitimacy = 1
	}
	orcish_teach_the_young = {
		manpower_recovery_speed = 0.1
	}
	orcish_self_sustaining_warbands = {
		land_attrition = -0.1
		land_maintenance_modifier = -0.05
	}
	orcish_natural_camoflague = {
		hostile_attrition = 1
	}
	orcish_orcish_legions = {
		discipline = 0.05
	}
	orcish_veteran_mercenaries = {			#Mercenaries from abroad return home to impart advice
		mercenary_discipline = 0.05
		same_culture_advisor_cost = -0.15
	}
}

goblin_ideas = {
	start = {
		global_manpower_modifier = 0.1
		may_establish_frontier = yes
	}
	
	bonus = {
		siege_ability = 0.10
	}
	
	trigger = {
		culture_group = goblin
		NOT = { primary_culture = camp_goblin }
	}
	free = yes
	
	goblin_always_prepared = {
		army_tradition_decay = -0.01
	}
	goblin_goblinic_austerity = {
		state_maintenance_modifier = -0.15
	}
	goblin_shamans = {
		legitimacy = 0.5
		hostile_attrition = 1
	}
	goblin_social_mobility = {		#THIS MUST BE CHANGED FOR EXODUS GOBLIN ONLY
		advisor_cost = -0.05
		tolerance_heathen = 1
	}
	goblin_we_have_reserves = {
		infantry_cost = -0.1
		manpower_recovery_speed = 0.1
	}
	goblin_smug_pseudo_intellectuals = {
		technology_cost = -0.05
	}
	goblin_cowardly_tactics = {
		fire_damage = 0.10
	}
}	

sun_elf_ideas = {
	start = {
		same_culture_advisor_cost = -0.33
		diplomatic_upkeep = 1
	}
	
	bonus = {
		free_leader_pool = 1
	}
	
	trigger = {
		primary_culture = sun_elf
	}
	free = yes
	
	sun_elf_purity_of_blood = {
		prestige = 0.5
	}
	sun_elf_flying_chariots = {
		leader_land_manuever = 1
		fire_damage = 0.10
	}
	sun_elf_discriminatory_magical_schooling = {
		global_unrest = -1
	}
	sun_elf_centuries_of_experience = {
		global_tax_modifier = 0.1
	}
	sun_elf_lavish_courts = {
		advisor_pool = 1
	}
	sun_elf_long_educations = {
		technology_cost = -0.10
	}
	sun_elf_experienced_plotters = {
		spy_offence = 0.2
	}
}

#Dwarven ideas - Tall militaristic playstyle. To be the stepping stone where empires trip and fall
dwarven_ideas = {
	start = {
		development_cost = -0.1
		infantry_power = 0.1
	}
	
	bonus = {
		global_own_trade_power = 0.1
	}
	
	trigger = {
		culture_group = dwarven
	}
	free = yes        #will be added at load.
	
	dwarven_solid_as_stone = {
		discipline = 0.05
	}
	dwarven_dwarven_craftsmanship = {
		global_trade_goods_size_modifier = 0.1
	}
	dwarven_masters_of_defense = {
		defensiveness = 0.2
	}
	dwarven_blackpowder_engineering = {
		mil_tech_cost_modifier = -0.1 #maybe a bit too much. Took it from berber ideas
	}
	dwarven_dwarven_resilience = {
		shock_damage_received = -0.05
		fire_damage_received = -0.05
	}
	dwarven_strongest_ale_in_the_world = {
		global_spy_defence = 0.20
		land_morale = 0.025
	}
	dwarven_master_builders = {
		siege_ability = 0.05
		build_time = -0.05
	}
}

temple_ideas = {
	start = {
		manpower_recovery_speed = 0.15
		missionaries = 1
	}
	
	bonus = {
		culture_conversion_cost = -0.1
	}
	
	trigger = {
		government = theocracy
		religion_group = cannorian
	}
	free = yes
	
	temple_stewards_of_the_faith = {
		global_tax_modifier = 0.10
	}
	temple_temple_administration = {
		stability_cost_modifier = -0.10
		core_creation = -0.10
	}
	temple_shield_of_the_pious = {
		defensiveness = 0.25
	}
	temple_dogmatic_center = {
		global_missionary_strength = 0.02
	}
	temple_fortified_temples = {
		global_garrison_growth = 0.1
		garrison_size = 0.1
	}
	temple_cultural_landmark = {
		prestige = 1
	}
	temple_temple_city = {
		development_cost = -0.1
	}
}

esmari_ideas = {
	start = {
		manpower_recovery_speed = 0.05
		heir_chance = 0.1
	}
	
	bonus = {
		diplomatic_reputation = 1
	}
	
	trigger = {
		primary_culture = esmari
	}
	free = yes        
	
	esmari_the_riverlords = {
		enemy_core_creation = 0.25
		global_spy_defence = 0.05
 	}
	esmari_esmar_river_parties = {
		prestige_decay = -0.01
		improve_relation_modifier = 0.05
	}
	esmari_the_waterways = {
		global_own_trade_power = 0.10
		trade_efficiency = 0.05
	}
	esmari_esmari_free_nobles = {
		merc_maintenance_modifier = -0.15
	}
	esmari_blessing_of_esmaryal = {
		global_unrest = -0.5
		stability_cost_modifier = -0.1
	}
	esmari_desire_for_peace = {
		diplomats = 1
	}
	esmari_production_techniques = {
		production_efficiency = 0.10
	}
}

free_city_ideas = {
	start = {
		merc_maintenance_modifier = -0.15
		development_cost = -0.1
	}
	
	bonus = {
		prestige = 1
	}
	
	trigger = {
		has_reform = free_city
	}
	free = yes
	
	free_city_imperial_privileges = {
		global_trade_goods_size_modifier = 0.1
	}
	free_city_free_guardsmen = {
		infantry_power = 0.1
	}
	free_city_urban_guilds = {
		production_efficiency = 0.1
	}
	free_city_inland_trade = {
		caravan_power = 0.2
	}
	free_city_imperial_immediacy = {
		global_tax_modifier = 0.1
	}
	free_city_safe_haven = {
		defensiveness = 0.2
	}
	free_city_promote_foreign_trade = {
		merchants = 1
	}
}

west_damerian_ideas = {
	start = {
		stability_cost_modifier = -0.1
		land_forcelimit_modifier = 0.2
	}
	
	bonus = {
		land_maintenance_modifier = -0.05
	}
	
	trigger = {
		primary_culture = west_damerian 
	}
	free = yes
	
	west_damerian_ducal_veterans = {
		infantry_cost = -0.10
	}
	west_damerian_land_cultivation = {
		production_efficiency = 0.1	
	}
	west_damerian_lorentish_trade = {
		global_trade_power = 0.1
	}
	west_damerian_melting_pot = {
		num_accepted_cultures = 1
		tolerance_heretic = 1		
	}
	west_damerian_on_both_sides = {
		infantry_power = 0.1
	}
	west_damerian_enemy_of_my_enemy = {
		diplomatic_reputation = 1
	}
	west_damerian_lessons_of_the_lilac_wars = {
		leader_land_shock = 1
	}
}

exwesser_ideas = {
	start = {
		heir_chance = 0.5
		num_accepted_cultures = 1
	}
	
	bonus = {
		land_forcelimit_modifier = 0.2
	}
	
	trigger = {
		OR = {
			primary_culture = exwesser
			tag = A40
		}
	}
	free = yes
	
	exwesser_maritime_heritage = {
		light_ship_cost = -0.10
	}
	exwesser_dwarven_engineers = {
		fort_maintenance_modifier = -0.10
	}
	exwesser_halfling_produce = {
		global_manpower_modifier = 0.15
	}
	exwesser_open_to_all = {
		tolerance_heretic = 2
	}
	exwesser_damesear_trade = {
		trade_efficiency = 0.1
	}
	exwesser_master_of_none = {
		prestige = 0.5
		diplomatic_reputation = 1
	}
	exwesser_advisors_of_all_nations = {
		advisor_cost = -0.1
		advisor_pool = 2
	}
}

uelairey_ideas = {
	start = {
		infantry_cost = -0.1
		trade_steering = 0.15
	}
	
	bonus = {
		manpower_recovery_speed = 0.15
	}
	
	trigger = {
		primary_culture = uelairey
	}
	free = yes
	
	uelairey_fortified_cities = {
		defensiveness = 0.15
	}
	uelairey_internal_markets = {
		production_efficiency = 0.10
	}
	uelairey_trust_your_own = {
		global_unrest = -1
	}
	uelairey_guard_against_gawed = {
		global_manpower_modifier = 0.25
	}
	uelairey_raiders = {
		leader_land_shock = 1
		loot_amount = 0.10
	}
	uelairey_chronicles = {
		legitimacy = 1
	}
	uelairey_newacre_development = {
		build_cost = -0.1
		build_time = -0.05
	}
}

moonelf_ideas = {
	start = {
		defensiveness = 0.1
		trade_efficiency = 0.1
	}
	
	bonus = {
		legitimacy = 1
		republican_tradition = 0.5
	}
	
	trigger = {
		primary_culture = moon_elf
	}
	free = yes
	
	moonelf_ingenuity = {
		idea_cost = -0.05
	}
	moonelf_mercenaries_of_men = {
		merc_maintenance_modifier = -0.15
	}
	moonelf_aristocracy = {
		enemy_core_creation = 0.25
		global_spy_defence = 0.05
 	}
	moonelf_tolerance = {
		num_accepted_cultures = 1
		heir_chance = 0.2
	}
	moonelf_high_artistry = {
		prestige = 1
	}
	moonelf_diplomacy = {
		diplomatic_upkeep = 1
		spy_offence = 0.1
	}
	moonelf_kinship = {
		diplomatic_reputation = 1
	}
}

woodelf_ideas = {
	start = {
		enemy_core_creation = 0.25
		hostile_attrition = 1
	}
	
	bonus = {
		innovativeness_gain = 0.5
	}
	
	trigger = {
		primary_culture = wood_elf
	}
	free = yes
	
	woodelf_one_with_nature = {
		movement_speed = 0.1
		supply_limit_modifier = 0.25
	}
	woodelf_specialized_arrows = {
		shock_damage = 0.1
	}
	woodelf_finest_carpenter = {
		build_cost = -0.15
 	}
	woodelf_shrewd_diplomats = {
		diplomatic_reputation = 1
	}
	woodelf_the_ranger_art = {
		army_tradition = 1
	}
	woodelf_gift_of_the_forest = {
		global_trade_goods_size_modifier = 0.05
	}
	woodelf_renaissance = {
		global_institution_spread = 0.1
	}
}

lorentish_culture_ideas = {
	start = {
		fort_maintenance_modifier = -0.1
		cavalry_cost = -0.1
	}
	
	bonus = {
		global_tax_modifier = 0.1
	}
	
	trigger = {
		culture_group = lencori
	}
	free = yes
	
	lorentish_luxury_trade = {
		global_own_trade_power = 0.10
	}
	lorentish_vineyard_palaces = {
		prestige_decay = -0.01 
	}
	lorentish_romantic_chivalry = {
		cavalry_power = 0.1
	}
	lorentish_adroit_diplomacy = {
		diplomatic_reputation = 1
	}
	lorentish_cuisine = {
		prestige = 1
	}
	lorentish_enlightenment = {
		diplomatic_upkeep = 1
	}
	lorentish_lilac_legacy = {
		land_morale = 0.1
	}
}

imperial_ideas = {
	start = {
		infantry_power = 0.1
		merc_maintenance_modifier = -0.15
	}
	
	bonus = {
		technology_cost = -0.05
	}
	
	trigger = {
		is_part_of_hre = yes
	}
	free = yes        #will be added at load.
	
	imperial_guilds = {
		production_efficiency = 0.10
	}
	imperial_trade_and_transit = {
		global_own_trade_power = 0.10
		trade_efficiency = 0.05
	}
	imperial_strength_in_numbers = {
		diplomatic_reputation = 1
	}
	imperial_law_and_order = {
		global_unrest = -1
	}
	imperial_wars_of_religion = {
		global_missionary_strength = 0.01
	}
	imperial_couriers = {
		diplomatic_upkeep = 1
	}
	imperial_privileges = {
		prestige = 1
	}
}

reachman_ideas = {
	start = {
		enemy_core_creation = 0.33
		diplomatic_upkeep = 1
	}
	
	bonus = {
		naval_morale = 0.1 
	}
	
	trigger = {
		OR = {
			primary_culture = blue_reachman
			primary_culture = white_reachman
			tag = Z26
		}
	}
	free = yes

	reachman_fierce_independence = {
		 hostile_attrition = 1
		 fort_maintenance_modifier = -0.1 
	}
	reachman_chillsbay_traders = {
		trade_efficiency = 0.1
	}
	reachman_purveyors_of_fur = {
		global_trade_goods_size_modifier = 0.1
	}
	reachman_galleys_of_the_giants_grave = {
		galley_power = 0.1
		galley_cost = -0.1
	}
	reachman_three_prongd_heritage = {
		same_culture_advisor_cost = -0.25
		advisor_pool = 1
	}
	reachman_fishy_diet = {
		global_unrest = -1
	}
	reachman_against_larger_odds = {
		discipline = 0.05
		land_morale = 0.1
	}
}	

escanni_ideas = {
	start = {
		colonists = 1
		prestige_from_land = 1.0
	}
	
	bonus = {
		diplomatic_upkeep = 1
	}
	
	trigger = {
		OR = {
			culture_group = escanni
			primary_culture = marrodic
		}
	}
	free = yes
	
	escanni_resettle = {
		global_colonial_growth = 25
	}
	escanni_heavy_knights = {
		cavalry_power = 0.2
	}
	escanni_castans_legacy = {
		land_morale = 0.1
	}
	escanni_adversity_breeds = {
		idea_cost = -0.1
	}
	escanni_till_fallow = {
		production_efficiency = 0.1
	}
	escanni_castans_unity = {
		stability_cost_modifier = -0.1
	}
	escanni_drafts = {
		global_manpower_modifier = 0.20
	}
}

gerudian_ideas = {
	start = {
		may_perform_slave_raid = yes
		global_manpower_modifier = 0.10
	}
	bonus = {
		shock_damage_received = -0.10
	}
	trigger = {
		OR = {
			primary_culture = west_dalr
			primary_culture = east_dalr
			primary_culture = olavish
		}
	}
	free = yes
	
	gerudian_hardy_reavers = {
		infantry_power = 0.10
	}
	gerudian_mead_halls = {
		global_unrest = -1.0
	}
	gerudian_eager_recruits = {
		sailors_recovery_speed = 0.05
		manpower_recovery_speed = 0.10
	}
	gerudian_troll_hunters = {
		war_exhaustion_cost = -0.15
	}
	gerudian_land_of_the_drowned_giants = {
		tolerance_own = 1.0
	}
	gerudian_pickled_goods = {
		trade_efficiency = 0.10
	}
	gerudian_naval_lifestyle = {
		leader_naval_manuever = 1.0
	}
}

harpy_ideas = {
	start = {
		may_recruit_female_generals = yes
		same_culture_advisor_cost = -0.33
	}
	bonus = {
		leader_land_manuever = 1
	}
	trigger = {
		OR = {
			culture_group = harpy
		}
	}
	free = yes
	
	harpy_relishment = {
		reinforce_cost_modifier = -0.2
	}
	harpy_shiny_things = {
		global_tax_modifier = 0.05
		loot_amount = 0.2
	}
	harpy_sporting_call = {
		harsh_treatment_cost = -0.5
	}
	harpy_relieving_songs = {
		war_exhaustion_cost = -0.25
	}
	harpy_the_odd_hunt = {
		institution_spread_from_true_faith = 0.2
	}
	harpy_unmitigated_fire = {
		fire_damage = 0.1
	}
	harpy_call_of_the_matriarch = {
		leader_cost = -0.3
	}
}

selpheregi_ideas = {
	start = {
		prestige_decay = -0.01
		production_efficiency = 0.1
	}
	bonus = {
		fire_damage = 0.1
	}
	trigger = {
		primary_culture = selphereg
	}
	free = yes
	
	selpheregi_spring_court = {
		fort_maintenance_modifier = -0.15
	}
	selpheregi_arcane_arts = {
		leader_land_fire = 1
	}
	selpheregi_eordellonion_expeditions = {
		missionaries = 1
	}
	selpheregi_age_of_renewal = {
		technology_cost = -0.1
	}
	selpheregi_artifacts_trade = {
		global_trade_goods_size_modifier = 0.1
	}
	selpheregi_restoration_of_the_hallowed_ruins = {
		development_cost = -0.15
	}
	selpheregi_first_among_ruinborn = {
		legitimacy = 1
		republican_tradition = 0.5
		devotion = 0.5
	}
}

caamas_ideas = {
	start = {
		global_ship_cost = -0.1
		trade_efficiency = 0.1
	}
	bonus = {
		ship_durability = 0.05
	}
	trigger = {
		primary_culture = caamas
	}
	free = yes
	
	caamas_call_of_the_sea = {
		global_sailors_modifier = 0.25
	}
	caamas_steadfast_precursor_fortifications = {
		defensiveness = 0.15
	}
	caamas_merchant_lord_fleets = {
		naval_morale = 0.1
		trade_steering = 0.05
	}
	caamas_summer_solstice_festival = {
		global_unrest = -2
	}
	caamas_alecandi_relations = {
		merchants = 1
	}
	caamas_reclamation_of_the_southern_lands = {
		colonists = 1
		native_assimilation = 0.25
	}
    caamas_summer_sea_enterprises = {
		global_trade_power = 0.1
	}
}

peitar_ideas = {
	start = {
		movement_speed = 0.1
		hostile_attrition = 1
	}
	bonus = {
		war_exhaustion = -0.05
	}
	trigger = {
		primary_culture = peitar
	}
	free = yes
	
	peitar_deepwoods_loyalty = {
		enemy_core_creation = 0.3
	}
	peitar_feypoison = {
		infantry_power = 0.1
	}
	peitar_four_seasons = {
		diplomatic_reputation = 1
	}
	peitar_gladewardens = {
		development_cost = -0.1
		manpower_recovery_speed = 0.05
	}
	peitar_exotic_domandrod_goods = {
		prestige = 0.5
		global_trade_goods_size_modifier = 0.05
	}
	peitar_corrosive_magic = {
		siege_ability = 0.1
	}
	peitar_fey_lords_tribute = {
		global_tax_modifier = 0.10
		yearly_absolutism = 0.2
	}
}

tuathak_ideas = {
	start = {
		infantry_cost = -0.1
		unjustified_demands = -0.1
	}
	bonus = {
		build_cost = -0.1
	}
	trigger = {
		primary_culture = tuathak
	}
	free = yes
	
	tuathak_autumn_court = {
		state_maintenance_modifier = -0.15
	}
	tuathak_final_harvest = {
		production_efficiency = 0.1
	}
	tuathak_marshals_of_the_north = {
		army_tradition = 0.5
	}
	tuathak_praisegranting = {
		diplomatic_reputation = 1
	}
	tuathak_warmwater_ports = {
		global_ship_cost = -0.1
	}
	tuathak_cannorian_military_tactics = {
		infantry_power = 0.1
	}
	tuathak_foreign_mercenaries = {
		mercenary_discipline = 0.05
		possible_mercenaries = 0.25
	}
}
snecboth_ideas = {
	start = {
		hostile_attrition = 1
		legitimacy = 1
		devotion = 0.5
		republican_tradition = 0.5
	}
	bonus = {
		leader_land_shock = 1
	}
	trigger = {
		primary_culture = snecboth
	}
	free = yes
	
	snecboth_glacial_bulwarks = {
		defensiveness = 0.15
	}
	snecboth_icefishing = {
		global_trade_goods_size_modifier = 0.05
		land_attrition = -0.1
	}
	snecboth_patience_and_understanding = {
		stability_cost_modifier = -0.15
	}
	snecboth_migratory_lifestyle = {
		global_manpower_modifier = 0.05
		global_sailors_modifier = 0.05
	}
	snecboth_boreal_cavalry = {
		cavalry_flanking = 0.25
		cavalry_cost = -0.10
	}
	snecboth_ice_sheet_exploration = {
		colonists = 1
		colonist_placement_chance = 0.1
	}
	snecboth_icebreaker_fleets = {
		navy_tradition = 1
	}
}
	

kheionai_ideas = {
	start = {
		colonists = 1
		enemy_core_creation = 0.3
	}
	bonus = {
		trade_efficiency = 0.1
	}
	trigger = {
		culture_group = kheionai_ruinborn_elf
	}
	free = yes
	
	kheionai_development_of_the_city_state = {
		development_cost = -0.15
	}
	kheionai_cleaved_sea_galleycraft = {
		galley_power = 0.1
		galley_cost = -0.1
	}
	kheionai_children_of_the_kheionai = {
		colonists = 1
		colonist_placement_chance = 0.05
	}
	kheionai_great_works_of_south_aelantir = { # Cities on boats
		build_cost = -0.1
		prestige_decay = -0.01
	}
	kheionai_modernize_the_kheionai_schools = {
		idea_cost = -0.1
	}
	kheionai_andic_merchant_fleets = { # Farms on boats
		ship_power_propagation = 0.1
	}
	kheionai_secure_the_kheionai = { # against foreigners
		global_own_trade_power = 0.1
	}
}

mteibhar_ideas = {
	start = {
		land_maintenance_modifier = -0.1
		defensiveness = 0.1
	}
	bonus = {
		movement_speed = 0.1
	}
	trigger = {
		culture_group = mteibhar
	}
	free = yes
	
	mteibhar_confederate_the_tribes = {
		may_establish_frontier = yes
	}
	mteibhar_mountain_men = {
		land_attrition = -0.1
		hostile_attrition = 1
	}
	mteibhar_forges_of_the_mteibhara= {
		production_efficiency = 0.1
	}
	mteibhar_adopt_kheionai_trade_practices = { # Cities on boats
		global_own_trade_power = 0.1
	}
	mteibhar_overlord_of_the_children_cities = {
		vassal_income = 0.2
	}
	mteibhar_symbiosis_with_the_alecandi = { # Farms on boats
		num_accepted_cultures = 2
		promote_culture_cost = -0.25
	}
	mteibhar_ruinborn_marksmen = { # against foreigners
		infantry_power = 0.1
	}
}

ynnic_ideas = {
	start = {
		diplomatic_upkeep = 1
		production_efficiency = 0.1
	}
	bonus = {
		artillery_power = 0.1
	}
	trigger = {
		culture_group = ynnic_ruinborn_elf
	}
	free = yes

	ynnic_survivors_of_the_ending_flood = {
		development_cost = -0.15
	}
	ynnic_ynnic_feudalism = {
		vassal_income = 0.2
		vassal_forcelimit_bonus = 0.1
	}
	ynnic_natural_besiegers = {
		siege_ability = 0.1
		leader_siege = 1
	}
	ynnic_influx_of_foreign_adventurers = { 
		merc_maintenance_modifier = -0.25
	}
	ynnic_trademasters_of_the_ynn = { 
		global_own_trade_power = 0.15
	}
	ynnic_integration_and_cannorization_act = { 
		promote_culture_cost = -0.25
		embracement_cost = -0.25
	}
	ynnic_scions_of_the_ynnic_empire = { 
		colonists = 1
		global_colonial_growth = 20
	}
}

taychendi_ideas = {
	start = {
		global_manpower_modifier = 0.1
		free_leader_pool = 1
	}
	bonus = {
		infantry_power = 0.1
	}
	trigger = {
		culture_group = taychendi_ruinborn_elf
	}
	free = yes

	taychendi_thousand_men_of_taychend = {
		global_regiment_recruit_speed = -0.33
	}
	taychendi_victories_make_civilization = {
		prestige_from_land = 0.1
		prestige_from_naval = 0.1
	}
	taychendi_the_five_castes = {
		global_unrest = -1
	}
	taychendi_great_kings_of_the_taychend = { 	#needs to be good for republics too
		yearly_absolutism = 0.3
	}
	taychendi_fifteen_thousand_bazaars = { 
		production_efficiency = 0.05
		global_tax_modifier = 0.05
	}
	taychendi_mass_fire_reforms = { 
		fire_damage = 0.1
	}
	taychendi_the_taychendi_venture_company = { 
		colonists = 1
		colonist_placement_chance = 0.1
	}
}


BULWARI_ideas = {
	start = {
		land_morale = 0.1
		cavalry_power = 0.15
	}
	
	bonus = {
		recover_army_morale_speed = 0.05
	}
	
	trigger = {
		OR = {
			primary_culture = zanite
			primary_culture = surani
		}
	}
	free = yes

	bulwari_first_cities_of_humanity = {
		republican_tradition = 0.3
		legitimacy = 1 
		devotion = 1
	}
	bulwari_ten_thousand_bazaars = {
		trade_efficiency = 0.15
	}
	bulwari_the_order_of_judges = {
		global_unrest = -2
	}
	bulwari_golden_spears = {
		global_manpower_modifier = 0.15
	}
	bulwari_repairing_the_golden_road = {
		caravan_power = 0.2
	}
	bulwari_encourage_resettlement = {
		manpower_recovery_speed = 0.10
	}
	bulwari_reform_the_city_states = {
		global_tax_modifier = 0.10
	}
}

BAHARI_ideas = {
	start = {
		light_ship_cost = -0.2
		land_morale = 0.1
	}
	
	bonus = {
 		global_trade_power = 0.1
	}
	
	trigger = {
		OR = {
			primary_culture = brasanni
			primary_culture = bahari
		}
	}
	free = yes
	
	bahari_idea_1 = {
		naval_forcelimit_modifier = 0.25
	}
	bahari_idea_2 = {
		embargo_efficiency = 0.1
		privateer_efficiency = 0.15
	}
	bahari_idea_3 = {
		merchants = 1
	}
	bahari_idea_4 = {
		trade_steering = 0.25
	}
	bahari_idea_5 = {
		tolerance_heathen = 2		
	}
	bahari_idea_6 = {
		merc_maintenance_modifier = -0.15
	}
	bahari_idea_7 = {
		trade_efficiency = 0.1
	}
	
}

hobgoblin_ideas = {
	start = {
		infantry_power = 0.15
		unjustified_demands = -0.2
	}
	
	bonus = {
 		army_tradition = 1
	}
	
	trigger = {
		culture_group = hobgoblin
	}
	free = yes
	
	hobgoblin_forging_an_empire = {
		core_creation = -0.15
	}
	hobgoblin_modern_drill_techniques = {
		discipline = 0.05
		drill_gain_modifier = 1
	}
	hobgoblin_warforged_culture = {
		war_exhaustion = -0.02
	}
	hobgoblin_honourable_service = { 
		global_spy_defence = 0.25
	}
	hobgoblin_expanded_legions = {
		land_forcelimit_modifier = 0.25
	}
	hobgoblin_military_education = {
		free_leader_pool = 1
		general_cost = -0.2
	}
	hobgoblin_direct_control = {
		global_autonomy = -0.05
	}
}

ghavanaaj_ideas = {
	start = {
		cavalry_power = 0.2
		enemy_core_creation = 0.5
	}
	
	bonus = {
 		shock_damage = 0.1
	}
	
	trigger = {
		OR = {
			primary_culture = ghavaanaj
		}
	}
	free = yes
	
	ghavanaaj_elephantine_workforce = {
		production_efficiency = 0.1
	}
	ghavanaaj_lumbering_caravans = {
		caravan_power = 0.15
	}
	ghavanaaj_festival_of_colours = {
		stability_cost_modifier = -0.2
	}
	ghavanaaj_local_regiments = {
		land_maintenance_modifier = -0.1
	}
	ghavanaaj_prize_breeds = {
		prestige = 1
	}
	ghavanaaj_champions_of_the_sharaajaghal_games = {
		leader_land_manuever = 1
	}
	ghavanaaj_gun_turrets = {
		cavalry_fire = 0.5
	}
}

river_city_ideas = {
	start = {
		global_spy_defence = 0.5
		garrison_size = 0.33
	}
	
	bonus = {
 		development_cost = -0.1
	}
	
	trigger = {
		OR = {
			primary_culture = muthadhaya
			primary_culture = rasarhid
		}
	}
	free = yes
	
	river_city_the_porcelain_cities = {
		production_efficiency = 0.15
	}
	river_city_the_aorta_of_raheni_philosophy = {
		idea_cost = -0.1
	}
	river_city_great_river_forts = {
		defensiveness = 0.15
	}
	river_city_great_river_barges = {
		caravan_power = 0.2
	}
	river_city_mobile_walls = {
		fire_damage_received = -0.1
		shock_damage_received = -0.1
	}
	river_city_patrol_duties = {
		land_maintenance_modifier = -0.1
	}
	river_city_military_advancement = {
		possible_mil_policy = 1
	}
}

ruin_kingdom_ideas = {
	start = {
		global_tax_modifier = 0.1
		land_maintenance_modifier = -0.15
	}
	
	bonus = {
 		same_culture_advisor_cost = -0.25
	}
	
	trigger = {
		OR = {
			tag = R10
			culture_group = upper_raheni
		}
	}
	free = yes
	
	ruin_kingdom_kingdoms_of_yore = {
		prestige = 1
	}
	ruin_kingdom_reintegration_of_old_territories = {
		diplomatic_annexation_cost = -0.2
	}
	ruin_kingdom_rahenraj_blades = {
		discipline = 0.05
	}
	ruin_kingdom_great_palace_libraries = {
		technology_cost = -0.05
	}
	ruin_kingdom_strengthen_ancient_bloodlines = { #! This should give nobility influence and loyalty
		legitimacy = 1
		monthly_splendor = 1
	}
	ruin_kingdom_slave_armies = {
		global_manpower_modifier = 0.15
	}
	ruin_kingdom_production_quotas = {
		global_trade_goods_size_modifier = 0.1
	}
}

raghamidesh_ideas = {
	start = {
		naval_maintenance_modifier = -0.2
		land_morale = 0.1
	}
	
	bonus = {
 		backrow_artillery_damage = 0.1
	}
	
	trigger = {
		primary_culture = raghamidesh
	}
	free = yes
	
	raghamidesh_merchant_marines = {
		light_ship_power = 0.15
		global_ship_trade_power = 0.15
	}
	raghamidesh_rahen_coast_merchants = {
		global_trade_power = 0.1
	}
	raghamidesh_great_harbours = {
		naval_forcelimit_modifier = 0.25
	}
	raghamidesh_soldiers_at_sea = {
		global_sailors_modifier = 0.1
		naval_attrition = -0.15
	}
	raghamidesh_artillery_experts = { 
		leader_land_fire = 1
		leader_naval_fire = 1
	}
	raghamidesh_alien_acceptance = {
		tolerance_heathen = 2
	}
	raghamidesh_profit_margins = {
		trade_efficiency = 0.1
	}
}

goblin_slave_ideas = { 
	start = { 
		global_unrest = -1 
		production_efficiency = 0.1 
	} 
	 
	bonus = { 
 		land_forcelimit_modifier = 0.2 
	} 
	 
	trigger = { 
		primary_culture = camp_goblin 
	} 
	free = yes 
	 
	camp_goblin_tradition_of_servitude = { 
		global_tax_modifier = 0.1 
		global_manpower_modifier = 0.1 
	} 
	camp_goblin_new_life_on_surface = { 
		development_cost = -0.05 
		build_cost = -0.1 
	} 
	camp_goblin_increasing_numbers = { 
		manpower_recovery_speed = 0.1 
	} 
	camp_goblin_loyalty_or_death = { 
		land_morale = 0.1 
	} 
	camp_goblin_new_porcelain_cities = {  
		global_trade_goods_size_modifier = 0.1 
	} 
	camp_goblin_integrated_society = { 
		culture_conversion_cost = -0.25 
	} 
	camp_goblin_goblin_renaissance = { 
		global_institution_spread = 0.1 
	} 
} 
 
orc_slave_ideas = { 
	start = { 
		land_forcelimit_modifier = 0.2 
		land_maintenance_modifier = -0.05 
	} 
	 
	bonus = { 
 		global_manpower_modifier = 0.2 
	} 
	 
	trigger = { 
		primary_culture = brown_orc 
	} 
	free = yes 
	 
	brown_orc_dishonored_but_united = { 
		stability_cost_modifier = -0.1 
		global_unrest = -1 
	} 
	brown_orc_conflict_with_locals = { 
		loot_amount = 0.2 
		culture_conversion_cost = -0.2 
	} 
	brown_orc_hobgoblin_advance_guard = { 
		infantry_cost = -0.1 
	} 
	brown_orc_unbroken_spirit = { 
		shock_damage = 0.1 
		land_morale = 0.1 
	} 
	brown_orc_workers_of_all_kind = {  
		global_tax_modifier = 0.05 
		production_efficiency = 0.05 
	} 
	brown_orc_slave_diplomacy = { 
		diplomatic_upkeep = 1 
	} 
	brown_orc_our_new_home = { 
		development_cost = -0.1 
	} 
}

jamindar_ideas = {
	start = {
		land_morale = 0.1
		tolerance_own = 2
	}
	
	bonus = {
 		fort_maintenance_modifier = -0.5
	}
	
	trigger = {
		OR = {
			has_reform = jamindar_reform
			has_reform = indep_jamindar_reform
			has_reform = great_jamindar_reform
		}
		culture_group = harimari
	}
	free = yes
	
	rahen_caste_system = {
		global_unrest = -1
	}
	jamindar_tooth_and_claw = {
		infantry_power = 0.1
	}
	jamindar_harimraj_conquests = {
		core_creation = -0.1
	}
	jamindar_masters_of_the_homeland = {
		hostile_attrition = 1
	}
	jamindar_philosopher_generals = {
		idea_cost = -0.05
		general_cost = -0.2
	}
	jamindar_the_lower_castes_contribution = { 
		global_tax_modifier = 0.1
	}
	jamindar_fighting_cubs = {
		army_tradition = 0.5
	}
}

ghankedhen_ideas = {
	start = {
		cavalry_power = 0.10
		movement_speed = 0.1
	}
	
	bonus = {
 		mil_tech_cost_modifier = -0.1
	}
	
	trigger = {
		primary_culture = ghankedhen
	}
	free = yes
	
	ghankedhen_herdsmen_warriors = {
		cavalry_cost = -0.2
	}
	ghankedhen_tribal_alliances = {
		diplomatic_upkeep = 1
	}
	ghankedhen_clan_retinues = {
		global_manpower_modifier = 0.25
	}
	ghankedhen_large_families = {
		heir_chance = 0.2
		advisor_pool = 1
	}
	ghankedhen_dwarven_tax_code = {
		global_tax_modifier = 0.1
	}
	ghankedhen_familial_nepotism = { 
		same_culture_advisor_cost = -0.25
	}
	ghankedhen_blackpowder_reforms = {
		fire_damage = 0.1
	}
}

south_raheni_ideas = {
	start = {
		global_tax_modifier = 0.1
		tolerance_own = 2
	}
	
	bonus = {
 		fort_maintenance_modifier = -0.1
	}
	
	trigger = {
		OR = {
			primary_culture = sarniryabsad
			primary_culture = dhukharuved
			primary_culture = rabhidarubsad
			primary_culture = pasindesh
		}
	}
	free = yes
	
	south_raheni_land_of_palaces = {
		prestige = 1
	}
	south_raheni_imperial_infrastructure = {
		development_cost = -0.1
	}
	south_raheni_the_great_river_school = {
		technology_cost = -0.05
	}
	south_raheni_disciples_of_the_harimari = {
		infantry_power = 0.1
		shock_damage = 0.05
	}
	south_raheni_masons_of_the_raj = {
		build_cost = -0.1
		build_time = -0.1
	}
	south_raheni_chosen_servants_of_harim = {
		land_morale = 0.1
	}
	south_raheni_the_edict_of_sardiphadin = {
		global_unrest = -1
	}
}