namespace = magic_study_events_good

#Help from Mages Estate
country_event = {
	id = magic_study_events_good.1	
	title = magic_study_events_good.1.t	
	desc = magic_study_events_good.1.d
	picture = CHURCH_ESTATE_eventPicture
	
	trigger = {
		has_ruler_modifier = ruler_studying_magic
		has_estate = estate_mages
		estate_influence = {
			estate = estate_mages
			influence = 10
		}
		NOT = {
			has_estate_influence_modifier = {
				estate = estate_mages
				modifier = EST_VAL_HELPING_RULER_STUDY
			}
		}
		
		NOT = { has_ruler_flag = ruler_studying_magisterial_support }
	}
	
	mean_time_to_happen = {
		days = 7300
		modifier = {
			factor = 0.5
			estate_loyalty = {
				estate = estate_mages
				loyalty = 60
			}
		}
		modifier = {
			factor = 0.5
			estate_influence = {
				estate = estate_mages
				influence = 50
			}
		}
	}
	
	#Accept Help
	option = {	
		name = magic_study_events_good.1.a
		ai_chance = {
			factor = 90
			modifier = {
				factor = 0
				estate_influence = {
					estate = estate_mages
					influence = 80
				}
			}
		}
		
		add_estate_influence_modifier = {
			estate = estate_mages
			desc = EST_VAL_HELPING_RULER_STUDY
			influence = 10
			duration = 1825
		}
		
		set_ruler_flag = ruler_studying_help_from_mages_estate
		custom_tooltip = tooltip_ruler_studying_increase
	}
	
	#Nah
	option = {
		name = magic_study_events_good.1.b
		ai_chance = {
			factor = 10
		}
		
		add_estate_loyalty = {
			estate = estate_mages
			loyalty = -10
		}
	}
}

# Help from Advisor (Court Mage)
country_event = {
	id = magic_study_events_good.2
	title = magic_study_events_good.2.t	
	desc = magic_study_events_good.2.d
	picture = ADVISOR_eventPicture
	
	trigger = {
		has_ruler_modifier = ruler_studying_magic
		advisor = court_mage
		
		NOT = { has_ruler_flag = ruler_studying_help_from_advisor }
	}
	
	mean_time_to_happen = {
		days = 7300
		modifier = {
			factor = 0.8
			stability = 1
		}
		modifier = {
			factor = 0.5
			court_mage = 3	#If you have a high level court mage its way more likely to fire
		}
		modifier = {
			factor = 0.8
			ruler_has_personality = well_advised_personality
		}
	}
	
	#Accept Help
	option = {	
		name = magic_study_events_good.2.a
		ai_chance = {
			factor = 90
		}
		
		add_prestige = -20
		
		set_ruler_flag = ruler_studying_help_from_advisor
		custom_tooltip = tooltip_ruler_studying_increase
	}
	
	#Nah
	option = {
		name = magic_study_events_good.2.b
		ai_chance = {
			factor = 10
			modifier = {
				factor = 100
				NOT = { prestige = 20 }
			}
		}
	}
}

# Library Research - yeah so this should be expanded where you ask the owners of the provinces below for permission but Magic 2.0!
country_event = {
	id = magic_study_events_good.3
	title = magic_study_events_good.3.t	
	desc = magic_study_events_good.3.d
	picture = BIG_BOOK_eventPicture
	
	trigger = {
		has_ruler_modifier = ruler_studying_magic
		
		NOT = { has_ruler_flag = ruler_studying_library_archives }
	}
	
	mean_time_to_happen = {
		days = 7300
		modifier = {
			factor = 0.6
			OR = {
				owns_or_subject_of = 8	#Great Library of Anbenncost
				owns_or_subject_of = 275	#Konwell Institute
			}
		}
		modifier = {
			factor = 0.8
			any_owned_province = {
				has_building = university
			}
		}
		modifier = {
			factor = 0.8
			ruler_has_personality = scholar_personality
		}
	}
	
	option = {	
		name = magic_study_events_good.3.a
		ai_chance = {
			factor = 100
		}
		set_ruler_flag = ruler_studying_library_archives
		custom_tooltip = tooltip_ruler_studying_increase
	}
}

# Ancient Tome Located!
country_event = {
	id = magic_study_events_good.4
	title = magic_study_events_good.4.t	
	desc = magic_study_events_good.4.d
	picture = BIG_BOOK_eventPicture
	
	trigger = {
		has_ruler_modifier = ruler_studying_magic
		
		NOT = { has_ruler_flag = ruler_studying_ancient_tome_found }
		
		NOT = {
			has_estate_influence_modifier = {
				estate = estate_adventurers
				modifier = EST_VAL_PROCURING_MAGICAL_ARTIFACTS_FOR_RULER_STUDY
			}
		}
	}
	
	mean_time_to_happen = {
		days = 7300
		modifier = {
			factor = 0.8
			ruler_has_personality = intricate_web_weaver_personality
		}
	}
	
	#Hire some adventurers to retrieve it
	option = {	
		name = magic_study_events_good.4.a
		trigger = {
			has_estate = estate_adventurers
		}
		ai_chance = {
			factor = 50
			modifier = {
				factor = 0
					estate_influence = {
						estate = estate_adventurers
						influence = 80
					}
			}
		}
		
		add_years_of_income = -0.25
		
		add_estate_influence_modifier = {
			estate = estate_adventurers
			desc = EST_VAL_PROCURING_MAGICAL_ARTIFACTS_FOR_RULER_STUDY
			influence = 10
			duration = 1825
		}
		
		set_ruler_flag = ruler_studying_ancient_tome_found
		custom_tooltip = tooltip_ruler_studying_increase
	}
	
	#I'll get it myself!
	option = {	
		name = magic_study_events_good.4.b
		ai_chance = {
			factor = 50
		}
		
		add_adm_power = -10
		add_dip_power = -10
		add_mil_power = -25
		
		set_ruler_flag = ruler_studying_ancient_tome_found
		custom_tooltip = tooltip_ruler_studying_increase
	}
}

# Magical Relic
country_event = {
	id = magic_study_events_good.5
	title = magic_study_events_good.5.t	
	desc = magic_study_events_good.5.d
	picture = BIG_BOOK_eventPicture
	
	trigger = {
		has_ruler_modifier = ruler_studying_magic
		
		NOT = { has_ruler_flag = ruler_studying_magic_relic }
		
		NOT = {
			has_estate_influence_modifier = {
				estate = estate_adventurers
				modifier = EST_VAL_PROCURING_MAGICAL_ARTIFACTS_FOR_RULER_STUDY
			}
		}
		
		
	}
	
	mean_time_to_happen = {
		days = 7300
		modifier = {
			factor = 0.8
			ruler_has_personality = intricate_web_weaver_personality
		}
	}
	
	#Hire some adventurers to retrieve it
	option = {	
		name = magic_study_events_good.5.a
		trigger = {
			has_estate = estate_adventurers
		}
		ai_chance = {
			factor = 50
			modifier = {
				factor = 0
					estate_influence = {
						estate = estate_adventurers
						influence = 80
					}
			}
		}
		
		add_years_of_income = -0.25
		
		add_estate_influence_modifier = {
			estate = estate_adventurers
			desc = EST_VAL_PROCURING_MAGICAL_ARTIFACTS_FOR_RULER_STUDY
			influence = 10
			duration = 1825
		}
		
		set_ruler_flag = ruler_studying_magic_relic
		custom_tooltip = tooltip_ruler_studying_increase
	}
	
	#I'll get it myself!
	option = {	
		name = magic_study_events_good.5.b
		ai_chance = {
			factor = 50
		}
		
		add_adm_power = -10
		add_dip_power = -10
		add_mil_power = -25
		
		set_ruler_flag = ruler_studying_magic_relic
		custom_tooltip = tooltip_ruler_studying_increase
	}
}

# Precursor Knowledge - needs to be more specific
country_event = {
	id = magic_study_events_good.6
	title = magic_study_events_good.6.t	
	desc = magic_study_events_good.6.d
	picture = AZTEC_PYRAMID_eventPicture
	
	trigger = {
		has_ruler_modifier = ruler_studying_magic
		
		NOT = { has_ruler_flag = ruler_studying_magic_precursor_knowledge }
		
		
		OR = {
			any_subject_country = {
				vassal_of = ROOT
				any_owned_province = {
					OR = {
						trade_goods = precursor_relics 
					}
					owned_by = FROM
				}
			}
		
			ROOT = {
				any_owned_province = {
					OR = {
						trade_goods = precursor_relics 
					}
					#owned_by = ROOT
				}
			}
		}
		
	}
	
	mean_time_to_happen = {
		days = 7300
		modifier = {
			factor = 0.8
			ruler_has_personality = expansionist_personality
		}
		modifier = {
			factor = 0.9
			has_idea_group = exploration_ideas
		}
		modifier = {
			factor = 0.75
			trading_bonus = {
				trade_goods = precursor_relics
				value = yes
			}
		}
	}
	
	#Hire some adventurers to retrieve it
	option = {	
		name = magic_study_events_good.6.a
		ai_chance = {
			factor = 50
			modifier = {
				factor = 0
					estate_influence = {
						estate = estate_adventurers
						influence = 80
					}
			}
		}
		
		add_years_of_income = -0.25
		
		add_estate_influence_modifier = {
			estate = estate_adventurers
			desc = EST_VAL_PROCURING_MAGICAL_ARTIFACTS_FOR_RULER_STUDY
			influence = 10
			duration = 1825
		}
		
		set_ruler_flag = ruler_studying_magic_precursor_knowledge
		custom_tooltip = tooltip_ruler_studying_increase
	}
	
	#Send an expeditionary force
	option = {	
		name = magic_study_events_good.6.b
		ai_chance = {
			factor = 50
		}
		
		add_mil_power = -50
		
		set_ruler_flag = ruler_studying_magic_precursor_knowledge
		custom_tooltip = tooltip_ruler_studying_increase
	}
}

#Help from Mages Estate (Magisters)
country_event = {
	id = magic_study_events_good.7
	title = magic_study_events_good.7.t	
	desc = magic_study_events_good.7.d
	picture = DHIMMI_ESTATE_eventPicture
	
	trigger = {
		has_ruler_modifier = ruler_studying_magic
		has_estate = estate_mages
		has_country_modifier = mage_organization_magisterium
		estate_influence = {
			estate = estate_mages
			influence = 10
		}
		NOT = {
			has_estate_influence_modifier = {
				estate = estate_mages
				modifier = EST_VAL_HELPING_RULER_STUDY
			}
		}
		
		NOT = { has_ruler_flag = ruler_studying_magisterial_support }
	}
	
	mean_time_to_happen = {
		days = 7300
		modifier = {
			factor = 0.5
			estate_loyalty = {
				estate = estate_mages
				loyalty = 60
			}
		}
		modifier = {
			factor = 0.5
			estate_influence = {
				estate = estate_mages
				influence = 60
			}
		}
	}
	
	#Accept Help
	option = {	
		name = magic_study_events_good.7.a
		ai_chance = {
			factor = 90
			modifier = {
				factor = 0
				estate_influence = {
					estate = estate_mages
					influence = 60
				}
			}
		}
		
		add_prestige = -10
		
		add_estate_influence_modifier = {
			estate = estate_mages
			desc = EST_VAL_HELPING_RULER_STUDY
			influence = 20
			duration = 1825
		}
		
		set_ruler_flag = ruler_studying_magisterial_support
		custom_tooltip = tooltip_ruler_studying_increase
	}
	
	#Nah
	option = {
		name = magic_study_events_good.7.b
		ai_chance = {
			factor = 10
		}
		
		add_estate_loyalty = {
			estate = estate_mages
			loyalty = -10
		}
	}
}

#Mana
country_event = {
	id = magic_study_events_good.8
	title = magic_study_events_good.8.t	
	desc = magic_study_events_good.8.d
	picture = OVEREXTENSION_eventPicture
	
	trigger = {
		has_ruler_modifier = ruler_studying_magic
		
		NOT = { has_ruler_flag = ruler_studying_magisterial_support }
		
		NOT = { has_ruler_flag = ruler_studying_mana_3 }
	}
	
	mean_time_to_happen = {
		days = 7300
		modifier = {
			factor = 0.8
			ruler_has_personality = scholar_personality
		}
		modifier = {
			factor = 0.8
			ruler_has_personality = free_thinker_personality
		}
		modifier = {
			factor = 0.8
			ruler_has_personality = naive_personality
		}
		modifier = {
			factor = 0.8
			OR = {
				adm_power = 100
				dip_power = 100
				mil_power = 100
			}
		}
		modifier = {
			factor = 1.1
			has_ruler_flag = ruler_studying_mana_1
		}
		modifier = {
			factor = 1.2
			has_ruler_flag = ruler_studying_mana_2
		}
	}
	
	#Rigorous Study
	option = {	
		name = magic_study_events_good.8.a
		ai_chance = {
			factor = 90
		}
		
		if = {
			limit = {
				NOT = { has_ruler_flag = ruler_studying_mana_1 }
				NOT = { has_ruler_flag = ruler_studying_mana_2 }
				NOT = { has_ruler_flag = ruler_studying_mana_3 }
			}
			add_adm_power = -25
			add_dip_power = -25
			add_mil_power = -25
		}
		if = {
			limit = {
				has_ruler_flag = ruler_studying_mana_1
				NOT = { has_ruler_flag = ruler_studying_mana_2 }
				NOT = { has_ruler_flag = ruler_studying_mana_3 }
			}
			add_adm_power = -50
			add_dip_power = -50
			add_mil_power = -50
		}
		if = {
			limit = {
				has_ruler_flag = ruler_studying_mana_2
				NOT = { has_ruler_flag = ruler_studying_mana_3 }
			}
			add_adm_power = -100
			add_dip_power = -100
			add_mil_power = -100
		}
		

		magic_study_level_up_mana = yes
		custom_tooltip = tooltip_ruler_studying_increase
	}
	
	#Nah
	option = {
		name = magic_study_events_good.8.b
		ai_chance = {
			factor = 10
			modifier = {
				factor = 100
				NOT = { adm_power = 50 }
				NOT = { dip_power = 50 }
				NOT = { mil_power = 50 }
			}
		}
		
	}
	
	#Free Thinker
	option = {
		name = magic_study_events_good.8.c
		trigger = {
			ruler_has_personality = free_thinker_personality
		}
		highlight = yes
		ai_chance = {
			factor = 1000
		}
		
		if = {
			limit = {
				NOT = { has_ruler_flag = ruler_studying_mana_1 }
				NOT = { has_ruler_flag = ruler_studying_mana_2 }
				NOT = { has_ruler_flag = ruler_studying_mana_3 }
			}
			add_adm_power = -10
			add_dip_power = -10
			add_mil_power = -10
		}
		if = {
			limit = {
				has_ruler_flag = ruler_studying_mana_1
				NOT = { has_ruler_flag = ruler_studying_mana_2 }
				NOT = { has_ruler_flag = ruler_studying_mana_3 }
			}
			add_adm_power = -33
			add_dip_power = -33
			add_mil_power = -33
		}
		if = {
			limit = {
				has_ruler_flag = ruler_studying_mana_2
				NOT = { has_ruler_flag = ruler_studying_mana_3 }
			}
			add_adm_power = -66
			add_dip_power = -66
			add_mil_power = -66
		}
		

		magic_study_level_up_mana = yes
		custom_tooltip = tooltip_ruler_studying_increase
	}
}

#Gold
country_event = {
	id = magic_study_events_good.9
	title = magic_study_events_good.9.t	
	desc = magic_study_events_good.9.d
	picture = BANKRUPTCY_eventPicture
	
	trigger = {
		has_ruler_modifier = ruler_studying_magic
		
		NOT = { has_ruler_flag = ruler_studying_magisterial_support }
		
		NOT = { has_ruler_flag = ruler_studying_gold_3 }
	}
	
	mean_time_to_happen = {
		days = 7300
		modifier = {
			factor = 0.8
			ruler_has_personality = scholar_personality
		}
		modifier = {
			factor = 0.8
			ruler_has_personality = free_thinker_personality
		}
		modifier = {
			factor = 0.8
			ruler_has_personality = naive_personality
		}
		modifier = {
			factor = 0.8
			OR = {
				adm_power = 100
				dip_power = 100
				mil_power = 100
			}
		}
		modifier = {
			factor = 1.1
			has_ruler_flag = ruler_studying_gold_1
		}
		modifier = {
			factor = 1.2
			has_ruler_flag = ruler_studying_gold_2
		}
	}
	
	#Rigorous Study
	option = {	
		name = magic_study_events_good.9.a
		ai_chance = {
			factor = 90
		}
		
		if = {
			limit = {
				NOT = { has_ruler_flag = ruler_studying_gold_1 }
				NOT = { has_ruler_flag = ruler_studying_gold_2 }
				NOT = { has_ruler_flag = ruler_studying_gold_3 }
			}
			add_years_of_income = -0.5
		}
		if = {
			limit = {
				has_ruler_flag = ruler_studying_gold_1
				NOT = { has_ruler_flag = ruler_studying_gold_2 }
				NOT = { has_ruler_flag = ruler_studying_gold_3 }
			}
			add_years_of_income = -1
		}
		if = {
			limit = {
				has_ruler_flag = ruler_studying_gold_2
				NOT = { has_ruler_flag = ruler_studying_gold_3 }
			}
			add_years_of_income = -3
		}
		

		magic_study_level_up_gold = yes
		custom_tooltip = tooltip_ruler_studying_increase
	}
	
	#Nah
	option = {
		name = magic_study_events_good.9.b
		ai_chance = {
			factor = 10
			modifier = {
				factor = 100
				NOT = { has_ruler_flag = ruler_studying_gold_1 }
				NOT = { has_ruler_flag = ruler_studying_gold_2 }
				NOT = { has_ruler_flag = ruler_studying_gold_3 }
				NOT = { years_of_income = 0.75 }
			}
			modifier = {
				factor = 100
				has_ruler_flag = ruler_studying_gold_1
				NOT = { has_ruler_flag = ruler_studying_gold_2 }
				NOT = { has_ruler_flag = ruler_studying_gold_3 }
				NOT = { years_of_income = 1.5 }
			}
			modifier = {
				factor = 100
				has_ruler_flag = ruler_studying_gold_2
				NOT = { has_ruler_flag = ruler_studying_gold_3 }
				NOT = { years_of_income = 2.5 }
			}
		}
		
	}
	
	#Greedy
	option = {
		name = magic_study_events_good.9.c
		trigger = {
			OR = {
				ruler_has_personality = greedy_personality
				ruler_has_personality = midas_touched_personality
			}
		}
		highlight = yes
		ai_chance = {
			factor = 1000
		}
		
		if = {
			limit = {
				NOT = { has_ruler_flag = ruler_studying_gold_1 }
				NOT = { has_ruler_flag = ruler_studying_gold_2 }
				NOT = { has_ruler_flag = ruler_studying_gold_3 }
			}
			add_years_of_income = -0.25
		}
		if = {
			limit = {
				has_ruler_flag = ruler_studying_gold_1
				NOT = { has_ruler_flag = ruler_studying_gold_2 }
				NOT = { has_ruler_flag = ruler_studying_gold_3 }
			}
			add_years_of_income = -0.5
		}
		if = {
			limit = {
				has_ruler_flag = ruler_studying_gold_2
				NOT = { has_ruler_flag = ruler_studying_gold_3 }
			}
			add_years_of_income = -1.5
		}
		

		magic_study_level_up_gold = yes
		custom_tooltip = tooltip_ruler_studying_increase
		
		increase_witch_king_points_small = yes
	}
}