
namespace = the_command

country_event = { #Shamakhad Resistance - Spawn rebels
	id = the_command.1
	title = the_command.1.t
	desc = the_command.1.d
	picture = WESTERNISATION_eventPicture

	fire_only_once = yes
	
	trigger = {
		NOT = { is_year = 1460 }
		tag = R62
	}

	mean_time_to_happen = {
		months = 1
	}

	option = { #Destroy them!
		name = the_command.1.a
		ai_chance = {
			factor = 1
		}
		4633 = {
			spawn_rebels = {
				type = nationalist_rebels
				size = 3
				win = yes
			}
		}
		4632 = {
			spawn_rebels = {
				type = nationalist_rebels
				size = 2
				win = yes
			}
		}
		4634 = {
			spawn_rebels = {
				type = nationalist_rebels
				size = 2
				win = yes
			}
		}
		4636 = {
			spawn_rebels = {
				type = nationalist_rebels
				size = 2
				win = yes
			}
		}
		4637 = {
			spawn_rebels = {
				type = nationalist_rebels
				size = 2
				win = yes
			}
		}
	}
}

province_event = { # Orcish slaves in $Provincename$
	id = the_command.2
	title = the_command.2.t
	desc = the_command.2.d
	picture = WESTERNISATION_eventPicture

	fire_only_once = yes
	
	trigger = {
		owned_by = R62
		R62 = {
			NOT = {
				OR = {
					has_country_flag = orcish_rebellions
					has_country_flag = orcish_rebellions_end
				}
			}
		}
		has_orcish_minority_trigger = no
		has_orcish_majority_trigger = no
		NOT = {
			OR = {
				trade_goods = cloth
				trade_goods = paper
				trade_goods = glass
				trade_goods = chinaware
				trade_goods = slaves
			}
		}
	}

	mean_time_to_happen = {
		years = 50
		
		modifier = {
			factor = 0.5
			OR = {
				trade_goods = tea
				trade_goods = cotton
				trade_goods = spices
				trade_goods = tropical_wood
				trade_goods = tobacco
				trade_goods = sugar
				trade_goods = coffee
			}
		}
		modifier = {
			factor = 0.5
			culture_group = hobgoblin
		}
		modifier = {
			factor = 0.25
			OR = {
				trade_goods = iron
				trade_goods = copper
				trade_goods = gold
				trade_goods = gems
				trade_goods = ivory
			}
		}
		modifier = {
			factor = 2
			OR = {
				trade_goods = silk
				trade_goods = dyes
			}
		}
		modifier = {
			factor = 2
			unrest = 2
		}
		modifier = {
			factor = 2
			unrest = 4
		}
		modifier = {
			factor = 2
			unrest = 6
		}
		modifier = {
			factor = 2
			unrest = 8
		}
		modifier = {
			factor = 5
			unrest = 10
		}
	}

	option = { # 
		name = the_command.2.a
		ai_chance = {
			factor = 1
		}
		add_permanent_province_modifier = {
			name = orcish_slave_boom
			duration = 3650
		}
		add_orcish_minority_size_effect = yes
		small_decrease_of_orcish_tolerance_effect = yes
	}
}

country_event = { # The rule of [ROOT.Monarch.GetName]
	id = the_command.3
	title = the_command.3.t
	desc = the_command.3.d
	picture = SEJM_eventPicture

	is_triggered_only = yes
	
	trigger = {
		tag = R62
		has_reform = hobgoblin_stratocracy_reform
	}

	option = { # The time of the Wolf has come
		name = the_command.3.a
		ai_chance = {
			factor = 1
		}
		trigger = {
			NOT = {
				dynasty = "Boarborn"
				dynasty = "Lionborn"
			}
		}
		
		add_faction_influence = {
			faction = hob_wolf_command
			influence = 10
		}
		add_ruler_modifier = {
			name = command_rule_of_the_wolf
			duration = -1
		}
		change_primary_culture = wolf_command
		set_ruler_culture = wolf_command
	}

	option = { # The time of the Boar has come
		name = the_command.3.b
		ai_chance = {
			factor = 1
		}
		trigger = {
			NOT = {
				dynasty = "Wolfborn"
				dynasty = "Lionborn"
			}
		}
		
		add_faction_influence = {
			faction = hob_boar_command
			influence = 10
		}
		add_ruler_modifier = {
			name = command_rule_of_the_boar
			duration = -1
		}
		change_primary_culture = boar_command
		set_ruler_culture = boar_command
	}

	option = { # The time of the Lion has come
		name = the_command.3.c
		ai_chance = {
			factor = 1
		}
		trigger = {
			NOT = {
				dynasty = "Boarborn"
				dynasty = "Wolfborn"
			}
		}
		
		add_faction_influence = {
			faction = hob_lion_command
			influence = 20
		}
		add_ruler_modifier = {
			name = command_rule_of_the_lion
			duration = -1
		}
		change_primary_culture = lion_command
		set_ruler_culture = lion_command
	}
}

#############################
#	Pushing Orc Slaves		#
#############################

country_event = { # Thunderfist Movement Menu
	id = the_command.100
	title = the_command.100.t
	desc = the_command.100.d
	picture = WESTERNISATION_eventPicture

	is_triggered_only = yes
	
	immediate = {
		
		hidden_effect = {
		
			random_owned_area = {
				limit = {
					superregion = rahen_superregion
					area_for_scope_province = { type = all owned_by = ROOT }
					any_neighbor_province = {
						owner = {
							NOT = {
								tag = R62
								is_subject_of = R62
							}
						}
					}
				}
				save_event_target_as = thunderfist_candidate_1
				set_province_flag = thunderfist_candidate_1
			}
		
			random_owned_area = {
				limit = {
					superregion = rahen_superregion
					area_for_scope_province = { type = all owned_by = ROOT }
					NOT = {
						has_province_flag = thunderfist_candidate_1
					}
					any_neighbor_province = {
						owner = {
							NOT = {
								tag = R62
								is_subject_of = R62
							}
						}
					}
				}
				save_event_target_as = thunderfist_candidate_2
				set_province_flag = thunderfist_candidate_2
			}		

			random_owned_area = {
				limit = {
					superregion = rahen_superregion
					area_for_scope_province = { type = all owned_by = ROOT }
					NOT = {
						has_province_flag = thunderfist_candidate_1
						has_province_flag = thunderfist_candidate_2
					}
					any_neighbor_province = {
						owner = {
							NOT = {
								tag = R62
								is_subject_of = R62
							}
						}
					}
				}
				save_event_target_as = thunderfist_candidate_3
				set_province_flag = thunderfist_candidate_3
			}
		
		}
	}

	option = { # Choose first
		name = the_command.100.a
		trigger = {
			any_owned_province = {
				has_province_flag = thunderfist_candidate_1
			}
		}
		ai_chance = {
			factor = 1
		}
		
		add_country_modifier = {
			name = hobgoblin_thunderfist_shamans
			duration = 3650
		}
		event_target:thunderfist_candidate_1 = {
			area = {
				cede_province = R63
				if = {
					limit = { is_core = R62 }
					remove_core = R62
					add_core = R63
				}
			}
		}
		R63 = {
			every_owned_province = {
				limit = {
					NOT = { has_province_flag = thunderfist_candidate_1 }
				}
				cede_province = R62
				if = {
					limit = { is_core = R63 }
					remove_core = R63
					add_core = R62
				}
			}
			random_owned_province = {
				limit = {
					NOT = { has_province_flag = hobgoblin_has_orcish_minority }
				}
				add_core = PREV
				change_culture = PREV
				change_religion = PREV
				add_base_manpower = 1
			}
			random_owned_area = { set_province_flag = hobgoblin_has_orcish_minority }
			hidden_effect = {
				every_owned_province = {
					limit = {
						has_province_flag = thunderfist_candidate_1
					}
					clr_province_flag = thunderfist_candidate_1
				}
			}
		}
		hidden_effect = {
			every_owned_province = {
				clr_province_flag = thunderfist_candidate_2
				clr_province_flag = thunderfist_candidate_3
			}
		}
		
		close_single_menu = yes
	}

	option = { # Choose second
		name = the_command.100.b
		trigger = {
			any_owned_province = {
				has_province_flag = thunderfist_candidate_2
			}
		}
		ai_chance = {
			factor = 1
		}
		
		add_country_modifier = {
			name = hobgoblin_thunderfist_shamans
			duration = 3650
		}
		event_target:thunderfist_candidate_2 = {
			area = {
				cede_province = R63
				if = {
					limit = { is_core = R62 }
					remove_core = R62
					add_core = R63
				}
			}
		}
		R63 = {
			every_owned_province = {
				limit = {
					NOT = { has_province_flag = thunderfist_candidate_2 }
				}
				cede_province = R62
				if = {
					limit = { is_core = R63 }
					remove_core = R63
					add_core = R62
				}
			}
			random_owned_province = {
				limit = {
					NOT = { has_province_flag = hobgoblin_has_orcish_minority }
				}
				add_core = PREV
				change_culture = PREV
				change_religion = PREV
				add_base_manpower = 1
			}
			random_owned_area = { set_province_flag = hobgoblin_has_orcish_minority }
			hidden_effect = {
				every_owned_province = {
					limit = {
						has_province_flag = thunderfist_candidate_2
					}
					clr_province_flag = thunderfist_candidate_2
				}
			}
		}
		hidden_effect = {
			every_owned_province = {
				clr_province_flag = thunderfist_candidate_1
				clr_province_flag = thunderfist_candidate_3
			}
		}
		
		close_single_menu = yes
	}

	option = { # Choose third
		name = the_command.100.c
		trigger = {
			any_owned_province = {
				has_province_flag = thunderfist_candidate_3
			}
		}
		ai_chance = {
			factor = 1
		}
		
		add_country_modifier = {
			name = hobgoblin_thunderfist_shamans
			duration = 3650
		}
		event_target:thunderfist_candidate_3 = {
			area = {
				cede_province = R63
				if = {
					limit = { is_core = R62 }
					remove_core = R62
					add_core = R63
				}
			}
		}
		R63 = {
			every_owned_province = {
				limit = {
					NOT = { has_province_flag = thunderfist_candidate_3 }
				}
				cede_province = R62
				if = {
					limit = { is_core = R63 }
					remove_core = R63
					add_core = R62
				}
			}
			random_owned_province = {
				limit = {
					NOT = { has_province_flag = hobgoblin_has_orcish_minority }
				}
				change_culture = PREV
				change_religion = PREV
				add_core = PREV
				add_base_manpower = 1
			}
			random_owned_area = { set_province_flag = hobgoblin_has_orcish_minority }
			hidden_effect = {
				every_owned_province = {
					limit = {
						has_province_flag = thunderfist_candidate_3
					}
					clr_province_flag = thunderfist_candidate_3
				}
			}
		}
		hidden_effect = {
			every_owned_province = {
				clr_province_flag = thunderfist_candidate_1
				clr_province_flag = thunderfist_candidate_2
			}
		}
		
		close_single_menu = yes
	}
	
	option = {
		name = the_command.100.dd
		highlight = yes
		
		close_single_menu = yes
		hidden_effect = {
			every_owned_province = {
				clr_province_flag = thunderfist_candidate_1
				clr_province_flag = thunderfist_candidate_2
				clr_province_flag = thunderfist_candidate_3
			}
		}
	}
}

country_event = { # Bloodsong Movement Menu
	id = the_command.101
	title = the_command.101.t
	desc = the_command.101.d
	picture = WESTERNISATION_eventPicture

	is_triggered_only = yes
	
	immediate = {
		
		hidden_effect = {
		
		
			random_owned_area = {
				limit = {
					superregion = rahen_superregion
					area_for_scope_province = { type = all owned_by = ROOT }
					area_for_scope_province = { type = all is_capital = no }
					any_neighbor_province = {
						owner = {
							NOT = {
								tag = R62
								is_subject_of = R62
							}
						}
					}
				}
				save_event_target_as = bloodsong_candidate_1
				set_province_flag = bloodsong_candidate_1
			}
		
			random_owned_area = {
				limit = {
					superregion = rahen_superregion
					area_for_scope_province = { type = all owned_by = ROOT }
					area_for_scope_province = { type = all is_capital = no }
					NOT = {
						has_province_flag = bloodsong_candidate_1
					}
					any_neighbor_province = {
						owner = {
							NOT = {
								tag = R62
								is_subject_of = R62
							}
						}
					}
				}
				save_event_target_as = bloodsong_candidate_2
				set_province_flag = bloodsong_candidate_2
			}		

			random_owned_area = {
				limit = {
					superregion = rahen_superregion
					area_for_scope_province = { type = all owned_by = ROOT }
					area_for_scope_province = { type = all is_capital = no }
					NOT = {
						has_province_flag = bloodsong_candidate_1
						has_province_flag = bloodsong_candidate_2
					}
					any_neighbor_province = {
						owner = {
							NOT = {
								tag = R62
								is_subject_of = R62
							}
						}
					}
				}
				save_event_target_as = bloodsong_candidate_3
				set_province_flag = bloodsong_candidate_3
			}
		
		}
	}

	option = { # Choose first
		name = the_command.101.a
		trigger = {
			any_owned_province = {
				has_province_flag = bloodsong_candidate_1
			}
		}
		ai_chance = {
			factor = 1
		}
		
		add_country_modifier = {
			name = hobgoblin_bloodsong_advance_guard
			duration = 3650
		}
		event_target:bloodsong_candidate_1 = {
			area = {
				cede_province = R64
				if = {
					limit = { is_core = R62 }
					remove_core = R62
					add_core = R64
				}
			}
		}
		R64 = {
			every_owned_province = {
				limit = {
					NOT = { has_province_flag = bloodsong_candidate_1 }
				}
				cede_province = R62
				if = {
					limit = { is_core = R64 }
					remove_core = R64
					add_core = R62
				}
			}
			random_owned_province = {
				limit = {
					NOT = { has_province_flag = hobgoblin_has_orcish_minority }
				}
				add_core = PREV
				change_culture = PREV
				change_religion = PREV
				add_base_manpower = 1
			}
			random_owned_area = { set_province_flag = hobgoblin_has_orcish_minority }
			hidden_effect = {
				every_owned_province = {
					limit = {
						has_province_flag = bloodsong_candidate_1
					}
					clr_province_flag = bloodsong_candidate_1
				}
			}
		}
		hidden_effect = {
			every_owned_province = {
				clr_province_flag = bloodsong_candidate_2
				clr_province_flag = bloodsong_candidate_3
			}
		}
		
		close_single_menu = yes
	}

	option = { # Choose second
		name = the_command.101.b
		trigger = {
			any_owned_province = {
				has_province_flag = bloodsong_candidate_2
			}
		}
		ai_chance = {
			factor = 1
		}
		
		add_country_modifier = {
			name = hobgoblin_bloodsong_advance_guard
			duration = 3650
		}
		event_target:bloodsong_candidate_2 = {
			area = {
				cede_province = R64
				if = {
					limit = { is_core = R62 }
					remove_core = R62
					add_core = R64
				}
			}
		}
		R64 = {
			every_owned_province = {
				limit = {
					NOT = { has_province_flag = bloodsong_candidate_2 }
				}
				cede_province = R62
				if = {
					limit = { is_core = R64 }
					remove_core = R64
					add_core = R62
				}
			}
			random_owned_province = {
				limit = {
					NOT = { has_province_flag = hobgoblin_has_orcish_minority }
				}
				add_core = PREV
				change_culture = PREV
				change_religion = PREV
				add_base_manpower = 1
			}
			random_owned_area = { set_province_flag = hobgoblin_has_orcish_minority }
			hidden_effect = {
				every_owned_province = {
					limit = {
						has_province_flag = bloodsong_candidate_2
					}
					clr_province_flag = bloodsong_candidate_2
				}
			}
		}
		hidden_effect = {
			every_owned_province = {
				clr_province_flag = bloodsong_candidate_1
				clr_province_flag = bloodsong_candidate_3
			}
		}
		
		close_single_menu = yes
	}

	option = { # Choose third
		name = the_command.101.c
		trigger = {
			any_owned_province = {
				has_province_flag = bloodsong_candidate_3
			}
		}
		ai_chance = {
			factor = 1
		}
		
		add_country_modifier = {
			name = hobgoblin_bloodsong_advance_guard
			duration = 3650
		}
		event_target:bloodsong_candidate_3 = {
			area = {
				cede_province = R64
				if = {
					limit = { is_core = R62 }
					remove_core = R62
					add_core = R64
				}
			}
		}
		R64 = {
			every_owned_province = {
				limit = {
					NOT = { has_province_flag = bloodsong_candidate_3 }
				}
				cede_province = R62
				if = {
					limit = { is_core = R64 }
					remove_core = R64
					add_core = R62
				}
			}
			random_owned_province = {
				limit = {
					NOT = { has_province_flag = hobgoblin_has_orcish_minority }
				}
				add_core = PREV
				change_culture = PREV
				change_religion = PREV
				add_base_manpower = 1
			}
			random_owned_area = { set_province_flag = hobgoblin_has_orcish_minority }
			hidden_effect = {
				every_owned_province = {
					limit = {
						has_province_flag = bloodsong_candidate_3
					}
					clr_province_flag = bloodsong_candidate_3
				}
			}
		}
		hidden_effect = {
			every_owned_province = {
				clr_province_flag = bloodsong_candidate_1
				clr_province_flag = bloodsong_candidate_2
			}
		}
		
		close_single_menu = yes
	}
	
	option = {
		name = the_command.101.dd
		highlight = yes
		
		close_single_menu = yes
		hidden_effect = {
			every_owned_province = {
				clr_province_flag = bloodsong_candidate_1
				clr_province_flag = bloodsong_candidate_2
				clr_province_flag = bloodsong_candidate_3
			}
		}
	}
}